^C:\USERS\JACOBJENKS\DESKTOP\ROBOSUB\ROBOSUB\STDAFX.CPP
/c /IC:\Users\jacobjenks\Desktop\robosub\\include /IC:\opencv\build\\include /ZI /nologo /W3 /WX- /sdl /Od /Oy- /D WIN32 /D _DEBUG /D _CONSOLE /D _LIB /D _CRT_SECURE_NO_WARNINGS /D _UNICODE /D UNICODE /Gm /EHsc /RTC1 /MDd /GS /fp:precise /Zc:wchar_t /Zc:forScope /Yc"stdafx.h" /Fp"DEBUG\ROBOSUB.PCH" /Fo"DEBUG\\" /Fd"DEBUG\VC120.PDB" /Gd /TP /analyze- C:\USERS\JACOBJENKS\DESKTOP\ROBOSUB\ROBOSUB\STDAFX.CPP
^C:\USERS\JACOBJENKS\DESKTOP\ROBOSUB\ROBOSUB\CAMERA.CPP
/c /IC:\Users\jacobjenks\Desktop\robosub\\include /IC:\opencv\build\\include /ZI /nologo /W3 /WX- /sdl /Od /Oy- /D WIN32 /D _DEBUG /D _CONSOLE /D _LIB /D _CRT_SECURE_NO_WARNINGS /D _UNICODE /D UNICODE /Gm /EHsc /RTC1 /MDd /GS /fp:precise /Zc:wchar_t /Zc:forScope /Fo"DEBUG\\" /Fd"DEBUG\VC120.PDB" /Gd /TP /analyze- C:\USERS\JACOBJENKS\DESKTOP\ROBOSUB\ROBOSUB\CAMERA.CPP
^C:\USERS\JACOBJENKS\DESKTOP\ROBOSUB\ROBOSUB\COMPASS.CPP
/c /IC:\Users\jacobjenks\Desktop\robosub\\include /IC:\opencv\build\\include /ZI /nologo /W3 /WX- /sdl /Od /Oy- /D WIN32 /D _DEBUG /D _CONSOLE /D _LIB /D _CRT_SECURE_NO_WARNINGS /D _UNICODE /D UNICODE /Gm /EHsc /RTC1 /MDd /GS /fp:precise /Zc:wchar_t /Zc:forScope /Fo"DEBUG\\" /Fd"DEBUG\VC120.PDB" /Gd /TP /analyze- C:\USERS\JACOBJENKS\DESKTOP\ROBOSUB\ROBOSUB\COMPASS.CPP
^C:\USERS\JACOBJENKS\DESKTOP\ROBOSUB\ROBOSUB\DEPTHSENSOR.CPP
/c /IC:\Users\jacobjenks\Desktop\robosub\\include /IC:\opencv\build\\include /ZI /nologo /W3 /WX- /sdl /Od /Oy- /D WIN32 /D _DEBUG /D _CONSOLE /D _LIB /D _CRT_SECURE_NO_WARNINGS /D _UNICODE /D UNICODE /Gm /EHsc /RTC1 /MDd /GS /fp:precise /Zc:wchar_t /Zc:forScope /Fo"DEBUG\\" /Fd"DEBUG\VC120.PDB" /Gd /TP /analyze- C:\USERS\JACOBJENKS\DESKTOP\ROBOSUB\ROBOSUB\DEPTHSENSOR.CPP
^C:\USERS\JACOBJENKS\DESKTOP\ROBOSUB\ROBOSUB\IMU.CPP
/c /IC:\Users\jacobjenks\Desktop\robosub\\include /IC:\opencv\build\\include /ZI /nologo /W3 /WX- /sdl /Od /Oy- /D WIN32 /D _DEBUG /D _CONSOLE /D _LIB /D _CRT_SECURE_NO_WARNINGS /D _UNICODE /D UNICODE /Gm /EHsc /RTC1 /MDd /GS /fp:precise /Zc:wchar_t /Zc:forScope /Fo"DEBUG\\" /Fd"DEBUG\VC120.PDB" /Gd /TP /analyze- C:\USERS\JACOBJENKS\DESKTOP\ROBOSUB\ROBOSUB\IMU.CPP
^C:\USERS\JACOBJENKS\DESKTOP\ROBOSUB\ROBOSUB\KEYBOARDINPUT.CPP
/c /IC:\Users\jacobjenks\Desktop\robosub\\include /IC:\opencv\build\\include /ZI /nologo /W3 /WX- /sdl /Od /Oy- /D WIN32 /D _DEBUG /D _CONSOLE /D _LIB /D _CRT_SECURE_NO_WARNINGS /D _UNICODE /D UNICODE /Gm /EHsc /RTC1 /MDd /GS /fp:precise /Zc:wchar_t /Zc:forScope /Fo"DEBUG\\" /Fd"DEBUG\VC120.PDB" /Gd /TP /analyze- C:\USERS\JACOBJENKS\DESKTOP\ROBOSUB\ROBOSUB\KEYBOARDINPUT.CPP
^C:\USERS\JACOBJENKS\DESKTOP\ROBOSUB\ROBOSUB\KEYBOARDLISTENER.CPP
/c /IC:\Users\jacobjenks\Desktop\robosub\\include /IC:\opencv\build\\include /ZI /nologo /W3 /WX- /sdl /Od /Oy- /D WIN32 /D _DEBUG /D _CONSOLE /D _LIB /D _CRT_SECURE_NO_WARNINGS /D _UNICODE /D UNICODE /Gm /EHsc /RTC1 /MDd /GS /fp:precise /Zc:wchar_t /Zc:forScope /Fo"DEBUG\\" /Fd"DEBUG\VC120.PDB" /Gd /TP /analyze- C:\USERS\JACOBJENKS\DESKTOP\ROBOSUB\ROBOSUB\KEYBOARDLISTENER.CPP
^C:\USERS\JACOBJENKS\DESKTOP\ROBOSUB\ROBOSUB\MANUALNAVIGATIONCONTROLLER.CPP
/c /IC:\Users\jacobjenks\Desktop\robosub\\include /IC:\opencv\build\\include /ZI /nologo /W3 /WX- /sdl /Od /Oy- /D WIN32 /D _DEBUG /D _CONSOLE /D _LIB /D _CRT_SECURE_NO_WARNINGS /D _UNICODE /D UNICODE /Gm /EHsc /RTC1 /MDd /GS /fp:precise /Zc:wchar_t /Zc:forScope /Fo"DEBUG\\" /Fd"DEBUG\VC120.PDB" /Gd /TP /analyze- C:\USERS\JACOBJENKS\DESKTOP\ROBOSUB\ROBOSUB\MANUALNAVIGATIONCONTROLLER.CPP
^C:\USERS\JACOBJENKS\DESKTOP\ROBOSUB\ROBOSUB\MESSAGEDISPLAY.CPP
/c /IC:\Users\jacobjenks\Desktop\robosub\\include /IC:\opencv\build\\include /ZI /nologo /W3 /WX- /sdl /Od /Oy- /D WIN32 /D _DEBUG /D _CONSOLE /D _LIB /D _CRT_SECURE_NO_WARNINGS /D _UNICODE /D UNICODE /Gm /EHsc /RTC1 /MDd /GS /fp:precise /Zc:wchar_t /Zc:forScope /Fo"DEBUG\\" /Fd"DEBUG\VC120.PDB" /Gd /TP /analyze- C:\USERS\JACOBJENKS\DESKTOP\ROBOSUB\ROBOSUB\MESSAGEDISPLAY.CPP
^C:\USERS\JACOBJENKS\DESKTOP\ROBOSUB\ROBOSUB\MISSION.CPP
/c /IC:\Users\jacobjenks\Desktop\robosub\\include /IC:\opencv\build\\include /ZI /nologo /W3 /WX- /sdl /Od /Oy- /D WIN32 /D _DEBUG /D _CONSOLE /D _LIB /D _CRT_SECURE_NO_WARNINGS /D _UNICODE /D UNICODE /Gm /EHsc /RTC1 /MDd /GS /fp:precise /Zc:wchar_t /Zc:forScope /Fo"DEBUG\\" /Fd"DEBUG\VC120.PDB" /Gd /TP /analyze- C:\USERS\JACOBJENKS\DESKTOP\ROBOSUB\ROBOSUB\MISSION.CPP
^C:\USERS\JACOBJENKS\DESKTOP\ROBOSUB\ROBOSUB\MOTORCONTROLLER\EXCEPTION.CPP
/c /IC:\Users\jacobjenks\Desktop\robosub\\include /IC:\opencv\build\\include /ZI /nologo /W3 /WX- /sdl /Od /Oy- /D WIN32 /D _DEBUG /D _CONSOLE /D _LIB /D _CRT_SECURE_NO_WARNINGS /D _UNICODE /D UNICODE /Gm /EHsc /RTC1 /MDd /GS /fp:precise /Zc:wchar_t /Zc:forScope /Fo"DEBUG\\" /Fd"DEBUG\VC120.PDB" /Gd /TP /analyze- C:\USERS\JACOBJENKS\DESKTOP\ROBOSUB\ROBOSUB\MOTORCONTROLLER\EXCEPTION.CPP
^C:\USERS\JACOBJENKS\DESKTOP\ROBOSUB\ROBOSUB\MOTORCONTROLLER\JRKCONTROLLER.CPP
/c /IC:\Users\jacobjenks\Desktop\robosub\\include /IC:\opencv\build\\include /ZI /nologo /W3 /WX- /sdl /Od /Oy- /D WIN32 /D _DEBUG /D _CONSOLE /D _LIB /D _CRT_SECURE_NO_WARNINGS /D _UNICODE /D UNICODE /Gm /EHsc /RTC1 /MDd /GS /fp:precise /Zc:wchar_t /Zc:forScope /Fo"DEBUG\\" /Fd"DEBUG\VC120.PDB" /Gd /TP /analyze- C:\USERS\JACOBJENKS\DESKTOP\ROBOSUB\ROBOSUB\MOTORCONTROLLER\JRKCONTROLLER.CPP
^C:\USERS\JACOBJENKS\DESKTOP\ROBOSUB\ROBOSUB\MOTORCONTROLLER\JRKMOTOR.CPP
/c /IC:\Users\jacobjenks\Desktop\robosub\\include /IC:\opencv\build\\include /ZI /nologo /W3 /WX- /sdl /Od /Oy- /D WIN32 /D _DEBUG /D _CONSOLE /D _LIB /D _CRT_SECURE_NO_WARNINGS /D _UNICODE /D UNICODE /Gm /EHsc /RTC1 /MDd /GS /fp:precise /Zc:wchar_t /Zc:forScope /Fo"DEBUG\\" /Fd"DEBUG\VC120.PDB" /Gd /TP /analyze- C:\USERS\JACOBJENKS\DESKTOP\ROBOSUB\ROBOSUB\MOTORCONTROLLER\JRKMOTOR.CPP
^C:\USERS\JACOBJENKS\DESKTOP\ROBOSUB\ROBOSUB\MOTORCONTROLLER\USBDEVICE.CPP
/c /IC:\Users\jacobjenks\Desktop\robosub\\include /IC:\opencv\build\\include /ZI /nologo /W3 /WX- /sdl /Od /Oy- /D WIN32 /D _DEBUG /D _CONSOLE /D _LIB /D _CRT_SECURE_NO_WARNINGS /D _UNICODE /D UNICODE /Gm /EHsc /RTC1 /MDd /GS /fp:precise /Zc:wchar_t /Zc:forScope /Fo"DEBUG\\" /Fd"DEBUG\VC120.PDB" /Gd /TP /analyze- C:\USERS\JACOBJENKS\DESKTOP\ROBOSUB\ROBOSUB\MOTORCONTROLLER\USBDEVICE.CPP
^C:\USERS\JACOBJENKS\DESKTOP\ROBOSUB\ROBOSUB\NAVIGATION.CPP
/c /IC:\Users\jacobjenks\Desktop\robosub\\include /IC:\opencv\build\\include /ZI /nologo /W3 /WX- /sdl /Od /Oy- /D WIN32 /D _DEBUG /D _CONSOLE /D _LIB /D _CRT_SECURE_NO_WARNINGS /D _UNICODE /D UNICODE /Gm /EHsc /RTC1 /MDd /GS /fp:precise /Zc:wchar_t /Zc:forScope /Fo"DEBUG\\" /Fd"DEBUG\VC120.PDB" /Gd /TP /analyze- C:\USERS\JACOBJENKS\DESKTOP\ROBOSUB\ROBOSUB\NAVIGATION.CPP
^C:\USERS\JACOBJENKS\DESKTOP\ROBOSUB\ROBOSUB\ROBOSUB.CPP
/c /IC:\Users\jacobjenks\Desktop\robosub\\include /IC:\opencv\build\\include /ZI /nologo /W3 /WX- /sdl /Od /Oy- /D WIN32 /D _DEBUG /D _CONSOLE /D _LIB /D _CRT_SECURE_NO_WARNINGS /D _UNICODE /D UNICODE /Gm /EHsc /RTC1 /MDd /GS /fp:precise /Zc:wchar_t /Zc:forScope /Fo"DEBUG\\" /Fd"DEBUG\VC120.PDB" /Gd /TP /analyze- C:\USERS\JACOBJENKS\DESKTOP\ROBOSUB\ROBOSUB\ROBOSUB.CPP
^C:\USERS\JACOBJENKS\DESKTOP\ROBOSUB\ROBOSUB\RUTILITY.CPP
/c /IC:\Users\jacobjenks\Desktop\robosub\\include /IC:\opencv\build\\include /ZI /nologo /W3 /WX- /sdl /Od /Oy- /D WIN32 /D _DEBUG /D _CONSOLE /D _LIB /D _CRT_SECURE_NO_WARNINGS /D _UNICODE /D UNICODE /Gm /EHsc /RTC1 /MDd /GS /fp:precise /Zc:wchar_t /Zc:forScope /Fo"DEBUG\\" /Fd"DEBUG\VC120.PDB" /Gd /TP /analyze- C:\USERS\JACOBJENKS\DESKTOP\ROBOSUB\ROBOSUB\RUTILITY.CPP
^C:\USERS\JACOBJENKS\DESKTOP\ROBOSUB\ROBOSUB\SERIALSENSOR.CPP
/c /IC:\Users\jacobjenks\Desktop\robosub\\include /IC:\opencv\build\\include /ZI /nologo /W3 /WX- /sdl /Od /Oy- /D WIN32 /D _DEBUG /D _CONSOLE /D _LIB /D _CRT_SECURE_NO_WARNINGS /D _UNICODE /D UNICODE /Gm /EHsc /RTC1 /MDd /GS /fp:precise /Zc:wchar_t /Zc:forScope /Fo"DEBUG\\" /Fd"DEBUG\VC120.PDB" /Gd /TP /analyze- C:\USERS\JACOBJENKS\DESKTOP\ROBOSUB\ROBOSUB\SERIALSENSOR.CPP
^C:\USERS\JACOBJENKS\DESKTOP\ROBOSUB\ROBOSUB\SPARTONIMU.CPP
/c /IC:\Users\jacobjenks\Desktop\robosub\\include /IC:\opencv\build\\include /ZI /nologo /W3 /WX- /sdl /Od /Oy- /D WIN32 /D _DEBUG /D _CONSOLE /D _LIB /D _CRT_SECURE_NO_WARNINGS /D _UNICODE /D UNICODE /Gm /EHsc /RTC1 /MDd /GS /fp:precise /Zc:wchar_t /Zc:forScope /Fo"DEBUG\\" /Fd"DEBUG\VC120.PDB" /Gd /TP /analyze- C:\USERS\JACOBJENKS\DESKTOP\ROBOSUB\ROBOSUB\SPARTONIMU.CPP
^C:\USERS\JACOBJENKS\DESKTOP\ROBOSUB\ROBOSUB\TARGETNAVIGATIONCONTROLLER.CPP
/c /IC:\Users\jacobjenks\Desktop\robosub\\include /IC:\opencv\build\\include /ZI /nologo /W3 /WX- /sdl /Od /Oy- /D WIN32 /D _DEBUG /D _CONSOLE /D _LIB /D _CRT_SECURE_NO_WARNINGS /D _UNICODE /D UNICODE /Gm /EHsc /RTC1 /MDd /GS /fp:precise /Zc:wchar_t /Zc:forScope /Fo"DEBUG\\" /Fd"DEBUG\VC120.PDB" /Gd /TP /analyze- C:\USERS\JACOBJENKS\DESKTOP\ROBOSUB\ROBOSUB\TARGETNAVIGATIONCONTROLLER.CPP
^C:\USERS\JACOBJENKS\DESKTOP\ROBOSUB\ROBOSUB\TASK.CPP
/c /IC:\Users\jacobjenks\Desktop\robosub\\include /IC:\opencv\build\\include /ZI /nologo /W3 /WX- /sdl /Od /Oy- /D WIN32 /D _DEBUG /D _CONSOLE /D _LIB /D _CRT_SECURE_NO_WARNINGS /D _UNICODE /D UNICODE /Gm /EHsc /RTC1 /MDd /GS /fp:precise /Zc:wchar_t /Zc:forScope /Fo"DEBUG\\" /Fd"DEBUG\VC120.PDB" /Gd /TP /analyze- C:\USERS\JACOBJENKS\DESKTOP\ROBOSUB\ROBOSUB\TASK.CPP
^C:\USERS\JACOBJENKS\DESKTOP\ROBOSUB\ROBOSUB\VISION.CPP
/c /IC:\Users\jacobjenks\Desktop\robosub\\include /IC:\opencv\build\\include /ZI /nologo /W3 /WX- /sdl /Od /Oy- /D WIN32 /D _DEBUG /D _CONSOLE /D _LIB /D _CRT_SECURE_NO_WARNINGS /D _UNICODE /D UNICODE /Gm /EHsc /RTC1 /MDd /GS /fp:precise /Zc:wchar_t /Zc:forScope /Fo"DEBUG\\" /Fd"DEBUG\VC120.PDB" /Gd /TP /analyze- C:\USERS\JACOBJENKS\DESKTOP\ROBOSUB\ROBOSUB\VISION.CPP
^C:\USERS\JACOBJENKS\DESKTOP\ROBOSUB\ROBOSUB\SENSORLOG.CPP
/c /IC:\Users\jacobjenks\Desktop\robosub\\include /IC:\opencv\build\\include /ZI /nologo /W3 /WX- /sdl /Od /Oy- /D WIN32 /D _DEBUG /D _CONSOLE /D _LIB /D _CRT_SECURE_NO_WARNINGS /D _UNICODE /D UNICODE /Gm /EHsc /RTC1 /MDd /GS /fp:precise /Zc:wchar_t /Zc:forScope /Fo"DEBUG\\" /Fd"DEBUG\VC120.PDB" /Gd /TP /analyze- C:\USERS\JACOBJENKS\DESKTOP\ROBOSUB\ROBOSUB\SENSORLOG.CPP
